<?xml version="1.0" encoding="UTF-8"?>
<svg width="142px" height="142px" viewBox="0 0 142 142" version="1.1" xmlns="http://www.w3.org/2000/svg" xmlns:xlink="http://www.w3.org/1999/xlink">
    <!-- Generator: Sketch 55 (78076) - https://sketchapp.com -->
    <title>Dots / Orange </title>
    <desc>Created with Sketch.</desc>
    <defs>
        <polygon id="path-1" points="0 0 156.463824 0 156.463824 156.463824 0 156.463824"></polygon>
    </defs>
    <g id="Dots-/-Orange-" stroke="none" stroke-width="1" fill="none" fill-rule="evenodd">
        <g id="Oval-2">
            <mask id="mask-2" fill="white">
                <use xlink:href="#path-1"></use>
            </mask>
            <g id="Duplicate-control"></g>
            <circle id="Oval" fill="#FF5400" fill-rule="nonzero" mask="url(#mask-2)" cx="2.11199199" cy="2.11199199" r="2.11199199"></circle>
            <circle id="Oval" fill="#FF5400" fill-rule="nonzero" mask="url(#mask-2)" cx="2.11199199" cy="16.335976" r="2.11199199"></circle>
            <circle id="Oval" fill="#FF5400" fill-rule="nonzero" mask="url(#mask-2)" cx="2.11199199" cy="30.55996" r="2.11199199"></circle>
            <circle id="Oval" fill="#FF5400" fill-rule="nonzero" mask="url(#mask-2)" cx="2.11199199" cy="44.7839439" r="2.11199199"></circle>
            <circle id="Oval" fill="#FF5400" fill-rule="nonzero" mask="url(#mask-2)" cx="2.11199199" cy="59.0079279" r="2.11199199"></circle>
            <circle id="Oval" fill="#FF5400" fill-rule="nonzero" mask="url(#mask-2)" cx="2.11199199" cy="73.2319119" r="2.11199199"></circle>
            <circle id="Oval" fill="#FF5400" fill-rule="nonzero" mask="url(#mask-2)" cx="2.11199199" cy="87.4558959" r="2.11199199"></circle>
            <circle id="Oval" fill="#FF5400" fill-rule="nonzero" mask="url(#mask-2)" cx="2.11199199" cy="101.67988" r="2.11199199"></circle>
            <circle id="Oval" fill="#FF5400" fill-rule="nonzero" mask="url(#mask-2)" cx="2.11199199" cy="115.903864" r="2.11199199"></circle>
            <circle id="Oval" fill="#FF5400" fill-rule="nonzero" mask="url(#mask-2)" cx="2.11199199" cy="130.127848" r="2.11199199"></circle>
            <circle id="Oval" fill="#FF5400" fill-rule="nonzero" mask="url(#mask-2)" cx="16.335976" cy="2.11199199" r="2.11199199"></circle>
            <circle id="Oval" fill="#FF5400" fill-rule="nonzero" mask="url(#mask-2)" cx="16.335976" cy="16.335976" r="2.11199199"></circle>
            <circle id="Oval" fill="#FF5400" fill-rule="nonzero" mask="url(#mask-2)" cx="16.335976" cy="30.55996" r="2.11199199"></circle>
            <circle id="Oval" fill="#FF5400" fill-rule="nonzero" mask="url(#mask-2)" cx="16.335976" cy="44.7839439" r="2.11199199"></circle>
            <circle id="Oval" fill="#FF5400" fill-rule="nonzero" mask="url(#mask-2)" cx="16.335976" cy="59.0079279" r="2.11199199"></circle>
            <circle id="Oval" fill="#FF5400" fill-rule="nonzero" mask="url(#mask-2)" cx="16.335976" cy="73.2319119" r="2.11199199"></circle>
            <circle id="Oval" fill="#FF5400" fill-rule="nonzero" mask="url(#mask-2)" cx="16.335976" cy="87.4558959" r="2.11199199"></circle>
            <circle id="Oval" fill="#FF5400" fill-rule="nonzero" mask="url(#mask-2)" cx="16.335976" cy="101.67988" r="2.11199199"></circle>
            <circle id="Oval" fill="#FF5400" fill-rule="nonzero" mask="url(#mask-2)" cx="16.335976" cy="115.903864" r="2.11199199"></circle>
            <circle id="Oval" fill="#FF5400" fill-rule="nonzero" mask="url(#mask-2)" cx="16.335976" cy="130.127848" r="2.11199199"></circle>
            <circle id="Oval" fill="#FF5400" fill-rule="nonzero" mask="url(#mask-2)" cx="30.55996" cy="2.11199199" r="2.11199199"></circle>
            <circle id="Oval" fill="#FF5400" fill-rule="nonzero" mask="url(#mask-2)" cx="30.55996" cy="16.335976" r="2.11199199"></circle>
            <circle id="Oval" fill="#FF5400" fill-rule="nonzero" mask="url(#mask-2)" cx="30.55996" cy="30.55996" r="2.11199199"></circle>
            <circle id="Oval" fill="#FF5400" fill-rule="nonzero" mask="url(#mask-2)" cx="30.55996" cy="44.7839439" r="2.11199199"></circle>
            <circle id="Oval" fill="#FF5400" fill-rule="nonzero" mask="url(#mask-2)" cx="30.55996" cy="59.0079279" r="2.11199199"></circle>
            <circle id="Oval" fill="#FF5400" fill-rule="nonzero" mask="url(#mask-2)" cx="30.55996" cy="73.2319119" r="2.11199199"></circle>
            <circle id="Oval" fill="#FF5400" fill-rule="nonzero" mask="url(#mask-2)" cx="30.55996" cy="87.4558959" r="2.11199199"></circle>
            <circle id="Oval" fill="#FF5400" fill-rule="nonzero" mask="url(#mask-2)" cx="30.55996" cy="101.67988" r="2.11199199"></circle>
            <circle id="Oval" fill="#FF5400" fill-rule="nonzero" mask="url(#mask-2)" cx="30.55996" cy="115.903864" r="2.11199199"></circle>
            <circle id="Oval" fill="#FF5400" fill-rule="nonzero" mask="url(#mask-2)" cx="30.55996" cy="130.127848" r="2.11199199"></circle>
            <circle id="Oval" fill="#FF5400" fill-rule="nonzero" mask="url(#mask-2)" cx="44.7839439" cy="2.11199199" r="2.11199199"></circle>
            <circle id="Oval" fill="#FF5400" fill-rule="nonzero" mask="url(#mask-2)" cx="44.7839439" cy="16.335976" r="2.11199199"></circle>
            <circle id="Oval" fill="#FF5400" fill-rule="nonzero" mask="url(#mask-2)" cx="44.7839439" cy="30.55996" r="2.11199199"></circle>
            <circle id="Oval" fill="#FF5400" fill-rule="nonzero" mask="url(#mask-2)" cx="44.7839439" cy="44.7839439" r="2.11199199"></circle>
            <circle id="Oval" fill="#FF5400" fill-rule="nonzero" mask="url(#mask-2)" cx="44.7839439" cy="59.0079279" r="2.11199199"></circle>
            <circle id="Oval" fill="#FF5400" fill-rule="nonzero" mask="url(#mask-2)" cx="44.7839439" cy="73.2319119" r="2.11199199"></circle>
            <circle id="Oval" fill="#FF5400" fill-rule="nonzero" mask="url(#mask-2)" cx="44.7839439" cy="87.4558959" r="2.11199199"></circle>
            <circle id="Oval" fill="#FF5400" fill-rule="nonzero" mask="url(#mask-2)" cx="44.7839439" cy="101.67988" r="2.11199199"></circle>
            <circle id="Oval" fill="#FF5400" fill-rule="nonzero" mask="url(#mask-2)" cx="44.7839439" cy="115.903864" r="2.11199199"></circle>
            <circle id="Oval" fill="#FF5400" fill-rule="nonzero" mask="url(#mask-2)" cx="44.7839439" cy="130.127848" r="2.11199199"></circle>
            <circle id="Oval" fill="#FF5400" fill-rule="nonzero" mask="url(#mask-2)" cx="59.0079279" cy="2.11199199" r="2.11199199"></circle>
            <circle id="Oval" fill="#FF5400" fill-rule="nonzero" mask="url(#mask-2)" cx="59.0079279" cy="16.335976" r="2.11199199"></circle>
            <circle id="Oval" fill="#FF5400" fill-rule="nonzero" mask="url(#mask-2)" cx="59.0079279" cy="30.55996" r="2.11199199"></circle>
            <circle id="Oval" fill="#FF5400" fill-rule="nonzero" mask="url(#mask-2)" cx="59.0079279" cy="44.7839439" r="2.11199199"></circle>
            <circle id="Oval" fill="#FF5400" fill-rule="nonzero" mask="url(#mask-2)" cx="59.0079279" cy="59.0079279" r="2.11199199"></circle>
            <circle id="Oval" fill="#FF5400" fill-rule="nonzero" mask="url(#mask-2)" cx="59.0079279" cy="73.2319119" r="2.11199199"></circle>
            <circle id="Oval" fill="#FF5400" fill-rule="nonzero" mask="url(#mask-2)" cx="59.0079279" cy="87.4558959" r="2.11199199"></circle>
            <circle id="Oval" fill="#FF5400" fill-rule="nonzero" mask="url(#mask-2)" cx="59.0079279" cy="101.67988" r="2.11199199"></circle>
            <circle id="Oval" fill="#FF5400" fill-rule="nonzero" mask="url(#mask-2)" cx="59.0079279" cy="115.903864" r="2.11199199"></circle>
            <circle id="Oval" fill="#FF5400" fill-rule="nonzero" mask="url(#mask-2)" cx="59.0079279" cy="130.127848" r="2.11199199"></circle>
            <circle id="Oval" fill="#FF5400" fill-rule="nonzero" mask="url(#mask-2)" cx="73.2319119" cy="2.11199199" r="2.11199199"></circle>
            <circle id="Oval" fill="#FF5400" fill-rule="nonzero" mask="url(#mask-2)" cx="73.2319119" cy="16.335976" r="2.11199199"></circle>
            <circle id="Oval" fill="#FF5400" fill-rule="nonzero" mask="url(#mask-2)" cx="73.2319119" cy="30.55996" r="2.11199199"></circle>
            <circle id="Oval" fill="#FF5400" fill-rule="nonzero" mask="url(#mask-2)" cx="73.2319119" cy="44.7839439" r="2.11199199"></circle>
            <circle id="Oval" fill="#FF5400" fill-rule="nonzero" mask="url(#mask-2)" cx="73.2319119" cy="59.0079279" r="2.11199199"></circle>
            <circle id="Oval" fill="#FF5400" fill-rule="nonzero" mask="url(#mask-2)" cx="73.2319119" cy="73.2319119" r="2.11199199"></circle>
            <circle id="Oval" fill="#FF5400" fill-rule="nonzero" mask="url(#mask-2)" cx="73.2319119" cy="87.4558959" r="2.11199199"></circle>
            <circle id="Oval" fill="#FF5400" fill-rule="nonzero" mask="url(#mask-2)" cx="73.2319119" cy="101.67988" r="2.11199199"></circle>
            <circle id="Oval" fill="#FF5400" fill-rule="nonzero" mask="url(#mask-2)" cx="73.2319119" cy="115.903864" r="2.11199199"></circle>
            <circle id="Oval" fill="#FF5400" fill-rule="nonzero" mask="url(#mask-2)" cx="73.2319119" cy="130.127848" r="2.11199199"></circle>
            <circle id="Oval" fill="#FF5400" fill-rule="nonzero" mask="url(#mask-2)" cx="87.4558959" cy="2.11199199" r="2.11199199"></circle>
            <circle id="Oval" fill="#FF5400" fill-rule="nonzero" mask="url(#mask-2)" cx="87.4558959" cy="16.335976" r="2.11199199"></circle>
            <circle id="Oval" fill="#FF5400" fill-rule="nonzero" mask="url(#mask-2)" cx="87.4558959" cy="30.55996" r="2.11199199"></circle>
            <circle id="Oval" fill="#FF5400" fill-rule="nonzero" mask="url(#mask-2)" cx="87.4558959" cy="44.7839439" r="2.11199199"></circle>
            <circle id="Oval" fill="#FF5400" fill-rule="nonzero" mask="url(#mask-2)" cx="87.4558959" cy="59.0079279" r="2.11199199"></circle>
            <circle id="Oval" fill="#FF5400" fill-rule="nonzero" mask="url(#mask-2)" cx="87.4558959" cy="73.2319119" r="2.11199199"></circle>
            <circle id="Oval" fill="#FF5400" fill-rule="nonzero" mask="url(#mask-2)" cx="87.4558959" cy="87.4558959" r="2.11199199"></circle>
            <circle id="Oval" fill="#FF5400" fill-rule="nonzero" mask="url(#mask-2)" cx="87.4558959" cy="101.67988" r="2.11199199"></circle>
            <circle id="Oval" fill="#FF5400" fill-rule="nonzero" mask="url(#mask-2)" cx="87.4558959" cy="115.903864" r="2.11199199"></circle>
            <circle id="Oval" fill="#FF5400" fill-rule="nonzero" mask="url(#mask-2)" cx="87.4558959" cy="130.127848" r="2.11199199"></circle>
            <circle id="Oval" fill="#FF5400" fill-rule="nonzero" mask="url(#mask-2)" cx="101.67988" cy="2.11199199" r="2.11199199"></circle>
            <circle id="Oval" fill="#FF5400" fill-rule="nonzero" mask="url(#mask-2)" cx="101.67988" cy="16.335976" r="2.11199199"></circle>
            <circle id="Oval" fill="#FF5400" fill-rule="nonzero" mask="url(#mask-2)" cx="101.67988" cy="30.55996" r="2.11199199"></circle>
            <circle id="Oval" fill="#FF5400" fill-rule="nonzero" mask="url(#mask-2)" cx="101.67988" cy="44.7839439" r="2.11199199"></circle>
            <circle id="Oval" fill="#FF5400" fill-rule="nonzero" mask="url(#mask-2)" cx="101.67988" cy="59.0079279" r="2.11199199"></circle>
            <circle id="Oval" fill="#FF5400" fill-rule="nonzero" mask="url(#mask-2)" cx="101.67988" cy="73.2319119" r="2.11199199"></circle>
            <circle id="Oval" fill="#FF5400" fill-rule="nonzero" mask="url(#mask-2)" cx="101.67988" cy="87.4558959" r="2.11199199"></circle>
            <circle id="Oval" fill="#FF5400" fill-rule="nonzero" mask="url(#mask-2)" cx="101.67988" cy="101.67988" r="2.11199199"></circle>
            <circle id="Oval" fill="#FF5400" fill-rule="nonzero" mask="url(#mask-2)" cx="101.67988" cy="115.903864" r="2.11199199"></circle>
            <circle id="Oval" fill="#FF5400" fill-rule="nonzero" mask="url(#mask-2)" cx="101.67988" cy="130.127848" r="2.11199199"></circle>
            <circle id="Oval" fill="#FF5400" fill-rule="nonzero" mask="url(#mask-2)" cx="115.903864" cy="2.11199199" r="2.11199199"></circle>
            <circle id="Oval" fill="#FF5400" fill-rule="nonzero" mask="url(#mask-2)" cx="115.903864" cy="16.335976" r="2.11199199"></circle>
            <circle id="Oval" fill="#FF5400" fill-rule="nonzero" mask="url(#mask-2)" cx="115.903864" cy="30.55996" r="2.11199199"></circle>
            <circle id="Oval" fill="#FF5400" fill-rule="nonzero" mask="url(#mask-2)" cx="115.903864" cy="44.7839439" r="2.11199199"></circle>
            <circle id="Oval" fill="#FF5400" fill-rule="nonzero" mask="url(#mask-2)" cx="115.903864" cy="59.0079279" r="2.11199199"></circle>
            <circle id="Oval" fill="#FF5400" fill-rule="nonzero" mask="url(#mask-2)" cx="115.903864" cy="73.2319119" r="2.11199199"></circle>
            <circle id="Oval" fill="#FF5400" fill-rule="nonzero" mask="url(#mask-2)" cx="115.903864" cy="87.4558959" r="2.11199199"></circle>
            <circle id="Oval" fill="#FF5400" fill-rule="nonzero" mask="url(#mask-2)" cx="115.903864" cy="101.67988" r="2.11199199"></circle>
            <circle id="Oval" fill="#FF5400" fill-rule="nonzero" mask="url(#mask-2)" cx="115.903864" cy="115.903864" r="2.11199199"></circle>
            <circle id="Oval" fill="#FF5400" fill-rule="nonzero" mask="url(#mask-2)" cx="115.903864" cy="130.127848" r="2.11199199"></circle>
            <circle id="Oval" fill="#FF5400" fill-rule="nonzero" mask="url(#mask-2)" cx="130.127848" cy="2.11199199" r="2.11199199"></circle>
            <circle id="Oval" fill="#FF5400" fill-rule="nonzero" mask="url(#mask-2)" cx="130.127848" cy="16.335976" r="2.11199199"></circle>
            <circle id="Oval" fill="#FF5400" fill-rule="nonzero" mask="url(#mask-2)" cx="130.127848" cy="30.55996" r="2.11199199"></circle>
            <circle id="Oval" fill="#FF5400" fill-rule="nonzero" mask="url(#mask-2)" cx="130.127848" cy="44.7839439" r="2.11199199"></circle>
            <circle id="Oval" fill="#FF5400" fill-rule="nonzero" mask="url(#mask-2)" cx="130.127848" cy="59.0079279" r="2.11199199"></circle>
            <circle id="Oval" fill="#FF5400" fill-rule="nonzero" mask="url(#mask-2)" cx="130.127848" cy="73.2319119" r="2.11199199"></circle>
            <circle id="Oval" fill="#FF5400" fill-rule="nonzero" mask="url(#mask-2)" cx="130.127848" cy="87.4558959" r="2.11199199"></circle>
            <circle id="Oval" fill="#FF5400" fill-rule="nonzero" mask="url(#mask-2)" cx="130.127848" cy="101.67988" r="2.11199199"></circle>
            <circle id="Oval" fill="#FF5400" fill-rule="nonzero" mask="url(#mask-2)" cx="130.127848" cy="115.903864" r="2.11199199"></circle>
            <circle id="Oval" fill="#FF5400" fill-rule="nonzero" mask="url(#mask-2)" cx="130.127848" cy="130.127848" r="2.11199199"></circle>
        </g>
    </g>
</svg>